Data Science for Biological, Medical and Health Research: Notes for 432
…
            Data Science for Biological, Medical and Health Research: Notes for 432

Chapter 9 Adding Non-linear Terms to a Linear Regression Model

9.1 The pollution data

Consider the pollution data set, which contain 15 independent variables and a measure of mortality, describing 60 US metropolitan areas in 1959-1961. The data come from McDonald and Schwing (1973), and are available at http://www4.stat.ncsu.edu/~boos/var.select/pollution.html and our web site.

pollution

# A tibble: 60 x 16
      x1    x2    x3    x4    x5    x6    x7    x8     x9   x10   x11
   <int> <int> <int> <dbl> <dbl> <dbl> <dbl> <int>  <dbl> <dbl> <dbl>
 1    36    27    71  8.10  3.34 11.4   81.5  3243  8.80   42.6  11.7
 2    35    23    72 11.1   3.14 11.0   78.8  4281  3.50   50.7  14.4
 3    44    29    74 10.4   3.21  9.80  81.6  4260  0.800  39.4  12.4
 4    47    45    79  6.50  3.41 11.1   77.5  3125 27.1    50.2  20.6
 5    43    35    77  7.60  3.44  9.60  84.6  6441 24.4    43.7  14.3
 6    53    45    80  7.70  3.45 10.2   66.8  3325 38.5    43.1  25.5
 7    43    30    74 10.9   3.23 12.1   83.9  4679  3.50   49.2  11.3
 8    45    30    73  9.30  3.29 10.6   86.0  2140  5.30   40.4  10.5
 9    36    24    70  9.00  3.31 10.5   83.2  6582  8.10   42.5  12.6
10    36    27    72  9.50  3.36 10.7   79.3  4213  6.70   41.0  13.2
# ... with 50 more rows, and 5 more variables: x12 <int>, x13 <int>,
#   x14 <int>, x15 <int>, y <dbl>
…
