Data Science for Biological, Medical and Health Research: Notes for 432
…
Chapter 20 Analyzing Literary Styles with Multinomial Logistic Regression

20.1 The Authorship Example

This example is based on the work of Jeffrey S. Simonoff (2003) Analyzing Categorical Data in Chapter 10. Related data and R code are available at http://people.stern.nyu.edu/jsimonof/AnalCatData/Splus/. Meanwhile, the data set and analysis are based on the work of Peng RD and Hengartner NW (2002) Quantitative analysis of literary styles, The American Statistician, 56, 175-185.

The authorship.csv data file contains 841 rows. Each row describes a block of text that contains 1700 total words from one of several books by four authors: Jane Austen (samples from 7 books), Jack London (6 books), John Milton (2 books), or William Shakespeare (12 books). The data include counts within the blocks of text of 69 function words, such as “a”, “by”, “no”, “that” and “with”. The goal of our analysis, mirroring that of Simonoff, will be to use the incidence of these function words to build a model that distinguishes the authors.

authorship$Author <- factor(authorship$Author, 
    levels = c("Shakespeare", "Austen", "London", "Milton"))

authorship

# A tibble: 841 x 71
   BookID Author     a   all  also    an   and   any   are    as    at
    <int> <fct>  <int> <int> <int> <int> <int> <int> <int> <int> <int>
 1      1 Austen    46    12     0     3    66     9     4    16    13
 2      1 Austen    35    10     0     7    44     4     3    18    16
 3      1 Austen    46     2     0     3    40     1    13    11     9
 4      1 Austen    40     7     0     4    64     3     3    20    13
 5      1 Austen    29     5     0     6    52     5    14    17     6
 6      1 Austen    27     8     0     3    42     2    15    11    14
 7      1 Austen    34     8     0    15    44     2     6    16    14
 8      1 Austen    38     6     1     2    67     3     6    17     4
 9      1 Austen    34    12     0     5    50     2     8     7    13
10      1 Austen    54     8     0     6    44     4     8    13    17
# ... with 831 more rows, and 60 more variables: be <int>, been <int>,
#   but <int>, by <int>, can <int>, do <int>, down <int>, even <int>,
#   every <int>, `for` <int>, from <int>, had <int>, has <int>,
#   have <int>, her <int>, his <int>, `if` <int>, `in` <int>, into <int>,
#   is <int>, it <int>, its <int>, may <int>, more <int>, must <int>,
#   my <int>, no <int>, not <int>, now <int>, of <int>, on <int>,
#   one <int>, only <int>, or <int>, our <int>, should <int>, so <int>,
#   some <int>, such <int>, than <int>, that <int>, the <int>,
#   their <int>, then <int>, there <int>, things <int>, this <int>,
…
Again, following Simonoff, we will focus on 11 words from the set of 69 potential predictors in the data, specifically…

“be”, “been”, “had”, “it”, “may”, “not”, “on”, “the”, “upon”, “was” and “which”

auth2 <- authorship %>%
    select(Author, BookID, be, been, had, it, may, not, 
           on, the, upon, was, which)

auth2.long <- auth2 %>%
    gather("word", "n", 3:13)

auth2.long

# A tibble: 9,251 x 4
   Author BookID word      n
   <fct>   <int> <chr> <int>
 1 Austen      1 be       13
 2 Austen      1 be        9
 3 Austen      1 be       23
 4 Austen      1 be       20
 5 Austen      1 be       16
 6 Austen      1 be       12
 7 Austen      1 be       11
 8 Austen      1 be       21
 9 Austen      1 be        7
10 Austen      1 be       14
# ... with 9,241 more rows
…
been_dat <- data_frame(been_count = beengrid[,2], 
                       austen = austenprob[,1], 
                       london = londonprob[,1], 
                       milton = miltonprob[,1], 
                       shakespeare = shakesprob[,1])
been_dat

# A tibble: 271 x 5
   been_count austen london milton shakespeare
        <dbl>  <dbl>  <dbl>  <dbl>       <dbl>
 1      0.    0.0258  0.136  0.285       0.553
 2      0.100 0.0288  0.147  0.272       0.553
 3      0.200 0.0321  0.158  0.258       0.551
 4      0.300 0.0357  0.171  0.245       0.548
 5      0.400 0.0396  0.184  0.232       0.545
 6      0.500 0.0438  0.197  0.219       0.540
 7      0.600 0.0484  0.211  0.207       0.534
 8      0.700 0.0534  0.225  0.195       0.527
 9      0.800 0.0587  0.240  0.183       0.518
10      0.900 0.0644  0.256  0.171       0.509
# ... with 261 more rows

Now, we gather the data by author name and probability

been_dat_long <- been_dat %>%
    gather("name", "prob", 2:5)
been_dat_long

# A tibble: 1,084 x 3
   been_count name     prob
        <dbl> <chr>   <dbl>
 1      0.    austen 0.0258
 2      0.100 austen 0.0288
 3      0.200 austen 0.0321
 4      0.300 austen 0.0357
 5      0.400 austen 0.0396
 6      0.500 austen 0.0438
 7      0.600 austen 0.0484
 8      0.700 austen 0.0534
 9      0.800 austen 0.0587
10      0.900 austen 0.0644
# ... with 1,074 more rows
…
