Data Science for Biological, Medical and Health Research: Notes for 432
…
extra.ica
Extracranial ICA occlusion (1 = Yes, 0 = No)

time.rand
Time from stroke onset to study randomization, in minutes

time.punc
Time from stroke onset to groin puncture, in minutes (only if Intervention)

Here’s a quick look at the simulated data in fakestroke.

fakestroke

# A tibble: 500 x 18
   studyid trt        age sex   nihss location hx.isch  afib    dm mrankin
   <fct>   <fct>    <dbl> <fct> <int> <fct>    <fct>   <int> <int> <fct>  
 1 z001    Control   53.0 Male     21 Right    No          0     0 2      
 2 z002    Interve~  51.0 Male     23 Left     No          1     0 0      
 3 z003    Control   68.0 Fema~    11 Right    No          0     0 0      
 4 z004    Control   28.0 Male     22 Left     No          0     0 0      
 5 z005    Control   91.0 Male     24 Right    No          0     0 0      
 6 z006    Control   34.0 Fema~    18 Left     No          0     0 2      
 7 z007    Interve~  75.0 Male     25 Right    No          0     0 0      
 8 z008    Control   89.0 Fema~    18 Right    No          0     0 0      
 9 z009    Control   75.0 Male     25 Left     No          1     0 2      
10 z010    Interve~  26.0 Fema~    27 Right    No          0     0 0      
# ... with 490 more rows, and 8 more variables: sbp <int>, iv.altep <fct>,
#   time.iv <int>, aspects <int>, ia.occlus <fct>, extra.ica <int>,
#   time.rand <int>, time.punc <int>
…
