Data Science for Biological, Medical and Health Research: Notes for 432
…
17.4.8.13 WTKG3 is weight_kg

WTKG3 is computed by CDC, as the respondent’s weight in kilograms with two implied decimal places. We calculate the actual weight in kg, with the following:

smart.raw <- smart.raw %>% 
    mutate(weight_kg = WTKG3/100)

smart.raw %>% count(WTKG3, weight_kg)# %>% tail()

# A tibble: 257 x 3
   WTKG3 weight_kg     n
   <int>     <dbl> <int>
 1  3084      30.8     1
 2  3266      32.7     1
 3  3447      34.5     1
 4  3629      36.3     2
 5  3674      36.7     1
 6  3856      38.6     3
 7  3946      39.5     1
 8  4037      40.4     1
 9  4082      40.8     3
10  4128      41.3     1
# ... with 247 more rows
…
7777 = Don’t know/Not sure

9999 = Refused

Note that there is one impossible value of 575 in the data set. We’ll make that an NA, and we’ll also make NA any heights below 3 feet, or above 2.24 meters. Specifically, we calculate the actual height in meters, with the following:

smart.raw <- smart.raw %>%
    mutate(height_m = case_when(
        HEIGHT3 >= 300 & HEIGHT3 <= 511 ~ round((12*floor(HEIGHT3/100) + (HEIGHT3 - 100*floor(HEIGHT3/100)))*0.0254,2),
        HEIGHT3 >= 600 & HEIGHT3 <= 711 ~ round((12*floor(HEIGHT3/100) + (HEIGHT3 - 100*floor(HEIGHT3/100)))*0.0254,2),
        HEIGHT3 >= 9000 & HEIGHT3 <= 9224 ~ ((HEIGHT3 - 9000)/100)))

smart.raw %>% count(HEIGHT3, height_m) # %>% tail()

# A tibble: 35 x 3
   HEIGHT3 height_m     n
     <int>    <dbl> <int>
 1     406     1.37     1
 2     407     1.40     1
 3     408     1.42     4
 4     409     1.45    14
 5     410     1.47    23
 6     411     1.50    63
 7     500     1.52   184
 8     501     1.55   171
 9     502     1.57   415
10     503     1.60   408
# ... with 25 more rows

17.4.8.15 bmi is calculated from height_m and weight_kg

We’ll calculate body-mass index from height and weight.

smart.raw <- smart.raw %>% 
    mutate(bmi = round(weight_kg/(height_m)^2,2))

smart.raw %>% count(height_m, weight_kg, bmi)# %>% tail()

# A tibble: 1,579 x 4
   height_m weight_kg   bmi     n
      <dbl>     <dbl> <dbl> <int>
 1     1.37      68.0  36.2     1
 2     1.40      81.6  41.7     1
 3     1.42      40.4  20.0     1
 4     1.42      66.2  32.8     1
 5     1.42      72.6  36.0     2
 6     1.45      44.4  21.1     1
 7     1.45      45.4  21.6     1
 8     1.45      46.7  22.2     1
 9     1.45      52.2  24.8     2
10     1.45      53.5  25.5     1
# ... with 1,569 more rows
…
BLANK = Not asked or Missing

We’re going to convert this to a single numeric value. Answers in days per week (in the past 7 days) will be converted (after rounding) to days in the past 30. This is a little bit of a mess, really, but we can do it.

smart.raw <- smart.raw %>% 
    mutate(alcdays = as.numeric(ALCDAY5)) %>%
    mutate(alcdays = replace(alcdays, alcdays == 888, 0),
           alcdays = replace(alcdays, alcdays %in% c(777, 999), NA)) %>%
    mutate(alcdays = case_when(ALCDAY5 > 199 & ALCDAY5 < 231 ~ ALCDAY5 - 200,
                               ALCDAY5 > 100 & ALCDAY5 < 108 ~ round((ALCDAY5 - 100)*30/7,0),
                               TRUE ~ alcdays))

smart.raw %>% count(ALCDAY5, alcdays)

# A tibble: 38 x 3
   ALCDAY5 alcdays     n
     <int>   <dbl> <int>
 1     101      4.   256
 2     102      9.   197
 3     103     13.   142
 4     104     17.    62
 5     105     21.    51
 6     106     26.    11
 7     107     30.   124
 8     201      1.   471
 9     202      2.   363
10     203      3.   216
# ... with 28 more rows
…
