Data Science for Biological, Medical and Health Research: Notes for 432
…
Variable type: numeric 
 variable missing complete    n  mean   sd    p0  p25 median   p75  p100
      bmi      84      952 1036 27.89 6.47 12.71 23.7  26.68 30.53 66.06
     hist
 <U+2581><U+2587><U+2587><U+2582><U+2581><U+2581><U+2581><U+2581>

Now, we’ll create a new tibble called smartcle2 which contains every variable except poorhealth, and which includes all respondents with complete data on the variables (other than poorhealth). We’ll store those observations with complete data in the smartcle2 tibble.

smartcle2 <- smartcle1 %>% 
    select(-poorhealth) %>%
    filter(complete.cases(.))

smartcle2

# A tibble: 896 x 10
     SEQNO physhealth menthealth genhealth   bmi female internet30 exerany
     <dbl>      <int>      <int> <fct>     <dbl>  <int>      <int>   <int>
 1  2.02e9          0          0 2_VeryGo~  26.7      1          1       1
 2  2.02e9          0          0 1_Excell~  23.7      0          1       1
 3  2.02e9          1          5 2_VeryGo~  26.9      0          1       0
 4  2.02e9          0          0 3_Good     21.7      1          1       1
 5  2.02e9          5          0 1_Excell~  24.1      0          1       1
 6  2.02e9          4         18 2_VeryGo~  27.6      0          1       1
 7  2.02e9          2          0 3_Good     25.7      1          1       1
 8  2.02e9          2          3 3_Good     28.5      1          1       1
 9  2.02e9          0          0 2_VeryGo~  28.6      0          1       1
10  2.02e9          0          0 3_Good     23.1      0          1       0
# ... with 886 more rows, and 2 more variables: sleephrs <int>, alcdays
#   <int>
…
