Data Science for Biological, Medical and Health Research: Notes for 432
…
19.3.3 Storing a table in a tibble

We can store the elements of a cross-tabulation in a tibble, like this:

(sm1.tableA <- sm1 %>% count(incomegroup, genh))

# A tibble: 40 x 3
   incomegroup genh      n
   <fct>       <ord> <int>
 1 0-9K        1-E      20
 2 0-9K        2_VG     32
 3 0-9K        3_G      55
 4 0-9K        4_F      49
 5 0-9K        5_P      27
 6 10-14K      1-E      11
 7 10-14K      2_VG     36
 8 10-14K      3_G      65
 9 10-14K      4_F      67
10 10-14K      5_P      37
# ... with 30 more rows
…
