Data Science for Biological, Medical and Health Research: Notes for 432
…
            Data Science for Biological, Medical and Health Research: Notes for 432

Chapter 3 The Analysis of Variance

3.1 The bonding data: A Designed Dental Experiment

The bonding data describe a designed experiment into the properties of four different resin types (resin = A, B, C, D) and two different curing light sources (light = Halogen, LED) as they relate to the resulting bonding strength (measured in MPa5) on the surface of teeth. The source is Kim (2014).

The experiment involved making measurements of bonding strength under a total of 80 experimental setups, or runs, with 10 runs completed at each of the eight combinations of a light source and a resin type. The data are gathered in the bonding.csv file.

bonding

# A tibble: 80 x 4
   run_ID light   resin strength
   <fct>  <fct>   <fct>    <dbl>
 1 R101   LED     B         12.8
 2 R102   Halogen B         22.2
 3 R103   Halogen B         24.6
 4 R104   LED     A         17.0
 5 R105   LED     C         32.2
 6 R106   Halogen B         27.1
 7 R107   LED     A         23.4
 8 R108   Halogen A         23.5
 9 R109   Halogen D         37.3
10 R110   Halogen A         19.7
# ... with 70 more rows
…
